<?xml version="1.0" encoding="UTF-8" standalone="no"?>
<svg
   xmlns:dc="http://purl.org/dc/elements/1.1/"
   xmlns:cc="http://creativecommons.org/ns#"
   xmlns:rdf="http://www.w3.org/1999/02/22-rdf-syntax-ns#"
   xmlns:svg="http://www.w3.org/2000/svg"
   xmlns="http://www.w3.org/2000/svg"
   viewBox="0 0 82.000099 96.000099"
   id="svg2"
   height="96.000099"
   width="82.000099"
   version="1.1">
  <metadata
     id="metadata23">
    <rdf:RDF>
      <cc:Work
         rdf:about="">
        <dc:format>image/svg+xml</dc:format>
        <dc:type
           rdf:resource="http://purl.org/dc/dcmitype/StillImage" />
        <dc:title></dc:title>
      </cc:Work>
    </rdf:RDF>
  </metadata>
  <defs
     id="defs21" />
  <g
     transform="translate(2.0339004,4.4745809)"
     id="Layer1000">
    <path
       id="path5"
       style="fill:#ffffff;fill-rule:evenodd;fill-opacity:1"
       d="m 60.7581,35.2762 3.293,1.6466 3.293,1.6464 0,6.5863 -3.293,1.6461 -3.293,1.6469 -3.293,-1.6469 -3.293,-1.6461 0,-6.5863 3.293,-1.6464 3.293,-1.6466 z" />
    <path
       id="path7"
       style="fill:#ffffff;fill-rule:evenodd;fill-opacity:1"
       d="m 21.2417,35.2762 3.293,1.6466 3.293,1.6464 0,6.5863 -3.293,1.6461 -3.293,1.6469 -3.293,-1.6469 -3.293,-1.6461 0,-6.5863 3.293,-1.6464 3.293,-1.6466 z" />
    <path
       id="path9"
       style="fill:#ffffff;fill-rule:evenodd;fill-opacity:1"
       d="m 32.4377,49.1073 1.9763,0.9878 3.293,1.6464 0,6.586 -3.293,1.6464 -3.293,1.6469 -3.2933,-1.6469 -3.293,-1.6464 0,-6.586 3.293,-1.6464 1.9758,-0.9878 0,-14.4896 -1.9758,-0.9882 -3.293,-1.6466 0,-6.586 3.293,-1.6461 3.2933,-1.6467 3.293,1.6467 3.293,1.6461 0,6.586 -3.293,1.6466 -1.9763,0.9882 0,14.4896 z" />
    <path
       id="path11"
       style="fill:#ffffff;fill-rule:evenodd;fill-opacity:1"
       d="m 52.196,49.1073 1.9761,0.9878 3.293,1.6464 0,6.586 -3.293,1.6464 -3.2933,1.6469 -3.293,-1.6469 -3.293,-1.6464 0,-6.586 3.293,-1.6464 1.9763,-0.9878 0,-14.4896 -1.9763,-0.9882 -3.293,-1.6466 0,-6.586 3.293,-1.6461 3.293,-1.6467 3.2933,1.6467 3.293,1.6461 0,6.586 -3.293,1.6466 -1.9761,0.9882 0,14.4896 z" />
    <path
       id="path13"
       style="fill:#ffffff;fill-rule:evenodd;fill-opacity:1"
       d="m 42.317,21.4454 0,14.4895 1.9758,0.9879 3.293,1.6464 0,6.586 -3.293,1.6464 -1.9758,0.9878 0,14.4896 1.9758,0.9879 3.293,1.6469 0,6.5855 -3.293,1.6469 -3.2931,1.6464 -3.2927,-1.6464 -3.293,-1.6469 0,-6.5855 3.293,-1.6469 1.9758,-0.9879 0,-14.4896 -1.9758,-0.9878 -3.293,-1.6464 0,-6.586 3.293,-1.6464 1.9758,-0.9879 0,-14.4895 -1.9758,-0.9879 -3.293,-1.6469 0,-6.5855 3.293,-1.6469 3.2927,-1.6461 3.2931,1.6461 3.293,1.6469 0,6.5855 -3.293,1.6469 -1.9758,0.9879 z" />
  </g>
</svg>
